00000000 N .debug_abbrev
00000000 N .debug_aranges
00000000 N .debug_frame
00000000 N .debug_info
00000000 N .debug_line
00000000 N .debug_loc
00000000 N .debug_str
00000000 A __IE1
00000000 T _efartext
00000000 a app.c
00000000 a memcmp.c
00000000 a memcpy.c
00000000 a memset.c
00000001 A __IE2
00000002 A __IFG1
00000003 A __IFG2
00000004 A __ME1
00000005 A __ME2
00000018 A __P3IN
00000019 A __P3OUT
0000001a A __P3DIR
0000001b A __P3SEL
0000001c A __P4IN
0000001d A __P4OUT
0000001e A __P4DIR
0000001e A __data_size
0000001f A __P4SEL
00000020 A __P1IN
00000021 A __P1OUT
00000022 A __P1DIR
00000023 A __P1IFG
00000024 A __P1IES
00000025 A __P1IE
00000026 A __P1SEL
00000028 A __P2IN
00000029 A __P2OUT
0000002a A __P2DIR
0000002b A __P2IFG
0000002c A __P2IES
0000002d A __P2IE
0000002e A __P2SEL
00000030 A __P5IN
00000031 A __P5OUT
00000032 A __P5DIR
00000033 A __P5SEL
00000034 A __P6IN
00000035 A __P6OUT
00000036 A __P6DIR
00000037 A __P6SEL
00000050 A __I2CIE
00000051 A __I2CIFG
00000052 A __I2CNDAT
00000055 A __SVSCTL
00000056 A __DCOCTL
00000057 A __BCSCTL1
00000058 A __BCSCTL2
00000059 A __CACTL1
0000005a A __CACTL2
0000005b A __CAPD
00000070 A __U0CTL
00000071 A __I2CTCTL
00000071 A __U0TCTL
00000072 A __I2CDCTL
00000072 A __U0RCTL
00000073 A __I2CPSC
00000073 A __U0MCTL
00000074 A __I2CSCLH
00000074 A __U0BR0
00000075 A __I2CSCLL
00000075 A __U0BR1
00000076 A __I2CDRB
00000076 A __I2CDRW
00000076 A __U0RXBUF
00000077 A __U0TXBUF
00000078 A __U1CTL
00000079 A __U1TCTL
0000007a A __U1RCTL
0000007b A __U1MCTL
0000007c A __U1BR0
0000007d A __U1BR1
0000007e A __U1RXBUF
0000007f A __U1TXBUF
00000080 A __ADC12MCTL0
00000081 A __ADC12MCTL1
00000082 A __ADC12MCTL2
00000083 A __ADC12MCTL3
00000084 A __ADC12MCTL4
00000085 A __ADC12MCTL5
00000086 A __ADC12MCTL6
00000087 A __ADC12MCTL7
00000088 A __ADC12MCTL8
00000089 A __ADC12MCTL9
0000008a A __ADC12MCTL10
0000008b A __ADC12MCTL11
0000008c A __ADC12MCTL12
0000008d A __ADC12MCTL13
0000008e A __ADC12MCTL14
0000008f A __ADC12MCTL15
00000118 A __I2COA
0000011a A __I2CSA
0000011c A __I2CIV
0000011e A __TBIV
00000120 A __WDTCTL
00000122 A __DMACTL0
00000124 A __DMACTL1
00000128 A __FCTL1
0000012a A __FCTL2
0000012c A __FCTL3
0000012e A __TAIV
00000130 A __MPY
00000132 A __MPYS
00000134 A __MAC
00000136 A __MACS
00000138 A __OP2
0000013a A __RESLO
0000013c A __RESHI
0000013e A __SUMEXT
00000140 A __ADC12MEM0
00000142 A __ADC12MEM1
00000144 A __ADC12MEM2
00000146 A __ADC12MEM3
00000148 A __ADC12MEM4
0000014a A __ADC12MEM5
0000014c A __ADC12MEM6
0000014e A __ADC12MEM7
00000150 A __ADC12MEM8
00000152 A __ADC12MEM9
00000154 A __ADC12MEM10
00000156 A __ADC12MEM11
00000158 A __ADC12MEM12
0000015a A __ADC12MEM13
0000015c A __ADC12MEM14
0000015e A __ADC12MEM15
00000160 A __TACTL
00000162 A __TACCTL0
00000164 A __TACCTL1
00000166 A __TACCTL2
00000170 A __TAR
00000172 A __TACCR0
00000174 A __TACCR1
00000176 A __TACCR2
00000180 A __TBCTL
00000182 A __TBCCTL0
00000184 A __TBCCTL1
00000186 A __TBCCTL2
00000188 A __TBCCTL3
0000018a A __TBCCTL4
0000018c A __TBCCTL5
0000018e A __TBCCTL6
00000190 A __TBR
00000192 A __TBCCR0
00000194 A __TBCCR1
00000196 A __TBCCR2
00000198 A __TBCCR3
0000019a A __TBCCR4
0000019c A __TBCCR5
0000019e A __TBCCR6
000001a0 A __ADC12CTL0
000001a2 A __ADC12CTL1
000001a4 A __ADC12IFG
000001a6 A __ADC12IE
000001a8 A __ADC12IV
000001c0 A __DAC12_0CTL
000001c2 A __DAC12_1CTL
000001c8 A __DAC12_0DAT
000001ca A __DAC12_1DAT
000001e0 A __DMA0CTL
000001e2 A __DMA0SA
000001e4 A __DMA0DA
000001e6 A __DMA0SZ
000001e8 A __DMA1CTL
000001ea A __DMA1SA
000001ec A __DMA1DA
000001ee A __DMA1SZ
000001f0 A __DMA2CTL
000001f2 A __DMA2SA
000001f4 A __DMA2DA
000001f6 A __DMA2SZ
0000067a A __bss_size
00001100 d .data
00001100 D CtpRoutingEngineP__0__currentInterval
00001100 D __data_start
00001104 D CtpRoutingEngineP__0__ECNOff
00001105 D AMQueueImplP__0__current
00001106 D SystemLowPowerListeningP__delayAfterReceive
00001108 D SystemLowPowerListeningP__remoteWakeup
0000110a D PowerCycleP__sleepInterval
0000110c D FcfsResourceQueueC__0__qTail
0000110d D FcfsResourceQueueC__0__qHead
0000110e D CC2420TinyosNetworkP__resource_owner
0000110f D ActiveMessageAddressC__group
00001110 D ActiveMessageAddressC__addr
00001112 D ArbiterP__0__resId
00001113 D FcfsResourceQueueC__1__qTail
00001114 D FcfsResourceQueueC__1__qHead
00001115 D CC2420SpiP__m_holder
00001116 D McuSleepC__dirty
00001118 D msp430_spi_default_config
0000111c D TOS_NODE_ID
0000111e b .bss
0000111e B DisseminatorP__0__seqno
0000111e B __bss_start
0000111e D _edata
00001122 B CtpRoutingEngineP__0__justEvicted
00001124 B CtpRoutingEngineP__0__sending
00001126 B CtpRoutingEngineP__0__running
00001128 B CtpRoutingEngineP__0__radioOn
0000112a B LinkEstimatorP__prevSentIdx
0000112c B LinkEstimatorP__linkEstSeq
0000112e B QueueC__0__size
00001130 B QueueC__0__tail
00001132 B QueueC__0__head
00001134 B CtpForwardingEngineP__0__forwardingState
00001136 B CC2420ActiveMessageP__pending_message
00001138 B UniqueReceiveP__writeIndex
0000113a B CC2420TransmitP__m_receiving
0000113c B CC2420TransmitP__m_state
0000113e B Ds2411P__haveId
00001140 B LocalIeeeEui64P__have_id
00001142 B LocalIeeeEui64P__eui
0000114a B ArbiterP__0__state
0000114c B CC2420SpiP__m_requests
0000114e B CC2420ControlP__m_state
00001150 B CC2420CsmaP__sendErr
00001152 B McuSleepC__powerState
00001154 B EndMoteC__sensorState
00001156 B EndMoteC__busy
00001158 b fs.13277
0000115a B CC2420ReceiveP__m_p_rx_buf
0000115c B TransformAlarmC__1__m_t0
00001160 B TrickleTimerImplP__0__trickles
0000116c B DisseminationEngineImplP__m_buf
000011a0 B CC2420TransmitP__totalCcaChecks
000011a1 B DisseminatorP__0__m_running
000011a2 B LruCtpMsgCacheP__0__count
000011a3 B CtpRoutingEngineP__0__state_is_root
000011a4 B UniqueReceiveP__receivedMessages
000011b4 B CC2420TransmitP__myInitialBackoff
000011b6 B DisseminationEngineImplP__m_running
000011b7 B DefaultLplP__dutyCycling
000011b8 B CC2420ReceiveP__m_bytes_left
000011b9 B CtpForwardingEngineP__0__seqno
000011ba B CtpRoutingEngineP__0__routingTableActive
000011bb B CC2420TransmitP__abortSpiRelease
000011bc B SchedulerBasicP__m_next
000011d8 B CC2420ReceiveP__m_state
000011da B CC2420ReceiveP__rxFrameLength
000011dc B LruCtpMsgCacheP__0__cache
000011f4 B AlarmToTimerC__0__m_oneshot
000011f5 B CC2420TransmitP__m_tx_power
000011f6 B CC2420ControlP__addressRecognition
000011f7 B CC2420ReceiveP__m_missed_packets
000011f8 B TransformAlarmC__1__m_dt
000011fc B FcfsResourceQueueC__0__resQ
000011fe B CtpRoutingEngineP__0__routingTable
0000124e B CtpRoutingEngineP__0__t
00001252 B CC2420TransmitP__sfdHigh
00001253 B DisseminationEngineImplP__m_bufBusy
00001254 B CC2420ReceiveP__receivingPacket
00001256 B CtpRoutingEngineP__0__beaconMsgBuffer
0000128a B EndMoteC__data
0000128c B CC2420ControlP__m_pan
0000128e B CtpForwardingEngineP__0__clientEntries
00001292 B CC2420ControlP__autoAckEnabled
00001294 B CC2420TransmitP__m_msg
00001296 B RandomMlcgC__seed
0000129a B CC2420TinyosNetworkP__next_owner
0000129b B PoolP__0__index
0000129c B TransformCounterC__1__m_upper
000012a0 B Msp430SpiNoDmaP__0__m_tx_buf
000012a2 B TransformAlarmC__0__m_dt
000012a6 B CtpRoutingEngineP__0__beaconMsg
000012a8 B FcfsResourceQueueC__1__resQ
000012aa B TransformAlarmC__0__m_t0
000012ae B CC2420ControlP__m_short_addr
000012b0 B CtpForwardingEngineP__0__loopbackMsgPtr
000012b2 B Msp430SpiNoDmaP__0__m_client
000012b4 B CC2420SpiP__m_addr
000012b6 B CC2420TransmitP__m_prev_time
000012b8 B EndMoteC__pkt
000012ec B CC2420ActiveMessageP__pending_length
000012ee B PoolP__1__free
000012ef B PoolP__0__free
000012f0 B CC2420CsmaP__m_msg
000012f2 B LruCtpMsgCacheP__0__first
000012f4 B AMQueueImplP__0__queue
000012fc B TransformCounterC__0__m_upper
000012fe B BitVectorC__0__m_bits
00001300 B LinkEstimatorP__NeighborTable
00001378 B VirtualizeTimerC__0__m_timers
000013d2 B CtpForwardingEngineP__0__loopbackMsg
00001406 B BitVectorC__1__m_bits
00001408 B Msp430SpiNoDmaP__0__m_rx_buf
0000140a B PoolP__1__pool
0000143a B DefaultLplP__currentSendLen
0000143c B PoolP__0__queue
00001454 B CtpRoutingEngineP__0__my_ll_addr
00001456 B CC2420ControlP__m_tx_power
00001458 B DefaultLplP__currentSendMsg
0000145a B StateImplP__state
00001460 B CC2420CsmaP__ccaOn
00001462 B DisseminatorP__0__valueCache
00001464 B Ds2411P__ds2411id
0000146c B CC2420ControlP__hwAutoAckDefault
0000146e B CC2420ControlP__m_ext_addr
00001476 B ArbiterP__0__reqResId
00001477 B CC2420ControlP__m_channel
00001478 B PoolP__0__pool
000016e8 B CC2420SpiP__release
000016e9 B UniqueSendP__localSendId
000016ea B QueueC__0__queue
00001704 B CtpRoutingEngineP__0__tHasPassed
00001706 B CtpRoutingEngineP__0__routeInfo
0000170c B AlarmToTimerC__0__m_dt
00001710 B CC2420ReceiveP__m_timestamp_queue
00001730 B CC2420ReceiveP__m_rx_buf
00001764 B CC2420ReceiveP__m_timestamp_size
00001765 B SchedulerBasicP__m_head
00001766 B CtpRoutingEngineP__0__parentChanges
0000176a B Msp430SpiNoDmaP__0__m_pos
0000176c B CC2420ReceiveP__m_timestamp_head
0000176e B Msp430SpiNoDmaP__0__m_len
00001770 B AMQueueImplP__0__cancelMask
00001771 B PoolP__1__index
00001772 B CC2420TinyosNetworkP__m_busy_client
00001774 B UniqueReceiveP__recycleSourceElement
00001775 B CC2420ControlP__hwAddressRecognition
00001776 B CtpForwardingEngineP__0__clientPtrs
00001778 B PowerCycleP__ccaChecks
0000177a B CC2420TransmitP__myCongestionBackoff
0000177c B CC2420ControlP__m_sync_busy
0000177d B SchedulerBasicP__m_tail
0000177e B CC2420TransmitP__m_cca
00001780 B PoolP__1__queue
00001798 b .noinit
00001798 B __wdt_clear_value
0000179a A _end
00003900 A __stack
00004000 t .text
00004000 W __watchdog_support
00004000 W _reset_vector__
0000400c W __init_stack
00004010 W __do_copy_data
00004010 W __low_level_init
00004028 W __do_clear_bss
0000403e T main
000045a2 W __stop_progExec__
000045a2 W _endless_loop__
000045a8 t __br_unexpected_
000045a8 T __ctors_end
000045a8 T __ctors_start
000045a8 T __dtors_end
000045a8 T __dtors_start
000045a8 W __isr_0
000045a8 W __isr_10
000045a8 W __isr_11
000045a8 W __isr_14
000045a8 W __isr_2
000045a8 W __isr_3
000045a8 W __isr_7
000045ac t __nesc_ntoh_uint32
000045e6 t CtpForwardingEngineP__0__clearState
000045ec t CC2420SpiP__SpiByte__write
00004606 t OneWireMasterP__BusyWait__wait
00004630 t OneWireMasterP__Pin__makeInput
00004638 t OneWireMasterP__Pin__makeOutput
00004640 t Msp430TimerP__1__Timer__get
00004652 t GpioCaptureC__0__enableCapture
00004688 t MotePlatformC__TOSH_FLASH_M25P_DP_bit
000046ac t CC2420PacketP__getNetwork
000046f2 t LinkEstimatorP__findIdx
00004716 t CtpRoutingEngineP__0__LinkEstimator__getLinkQuality
0000474a t LinkEstimatorP__updateDETX
0000479e t LruCtpMsgCacheP__0__lookup
000047fe t CC2420ReceiveP__reset_state
00004816 t LocalIeeeEui64P__LocalIeeeEui64__getId
0000499e t LruCtpMsgCacheP__0__Cache__insert
00004a50 t HplMsp430Usart0P__Usart__resetUsart
00004a62 t SchedulerBasicP__popTask.part.119
00004a80 t Msp430TimerP__0__Event__fired
00004abc t ArbiterP__0__ResourceConfigure__unconfigure.part.128
00004ae6 t CtpForwardingEngineP__0__SendQueue__dequeue
00004b12 t CtpForwardingEngineP__0__MessagePool__put.part.136
00004b38 t CtpForwardingEngineP__0__QEntryPool__put.part.137
00004b5e t CtpForwardingEngineP__0__CtpInfo__getEtx
00004b96 t CtpForwardingEngineP__0__SendQueue__enqueue.part.141
00004bbc T __nesc_atomic_start
00004bce T __nesc_atomic_end
00004bd6 t Msp430SpiNoDmaP__0__continueOp
00004c52 t CC2420SpiP__WorkingState__isIdle
00004c6c t CC2420SpiP__Strobe__strobe
00004c9c t PowerCycleP__SplitControlState__isState
00004cbc t PowerCycleP__isDutyCycling
00004cda t CC2420CsmaP__SplitControlState__isState
00004cfa t Msp430GpioC__1__GeneralIO__clr
00004d0a t SchedulerBasicP__TaskBasic__postTask
00004d56 t CC2420SpiP__attemptRelease
00004dde t ArbiterP__0__ResourceDefaultOwner__release
00004e10 t CtpForwardingEngineP__0__sendTask__postTask
00004e1a t CC2420SpiP__SpiPacket__send.part.142
00004e34 t CC2420ReceiveP__RXFIFO__continueRead
00004e60 t CC2420ReceiveP__RXFIFO__beginRead
00004eca t CC2420ReceiveP__receive
00004eda t CC2420TransmitP__Send__sendDone.isra.150
00004ef6 t CC2420TransmitP__signalDone
00004f10 t StateImplP__State__requestState
00004f44 t StateImplP__State__toIdle
00004f5a t CC2420SpiP__Resource__request
00004ffc t Msp430GpioC__1__GeneralIO__set
0000500a t CC2420SpiP__Resource__release
000050c0 t CC2420TransmitP__releaseSpiResource
000050cc t RandomMlcgC__Random__rand32
00005136 t RandomMlcgC__Random__rand16
0000513e t CC2420TransmitP__RadioBackoff__requestInitialBackoff
0000517e t TrickleTimerImplP__0__generateTime
0000524e t TransformAlarmC__0__Counter__get
00005298 t TransformAlarmC__0__set_alarm
0000537c t TransformAlarmC__0__Alarm__start
000053c0 t CC2420TransmitP__congestionBackoff
0000541c t CC2420TransmitP__attemptSend
000054b4 t LedsP__Led2__set
000054c4 t LedsP__Led1__set
000054d4 t LedsP__Led0__set
000054e4 t EndMoteC__Leds__led0On
000054f4 t EndMoteC__Leds__led1On
00005504 t EndMoteC__Leds__led2On
00005514 t EndMoteC__setLeds
00005570 t CtpForwardingEngineP__0__packetComplete
000055bc t CC2420SpiP__Reg__write
00005600 t CC2420SpiP__Ram__write
00005678 t CC2420ControlP__writeId
000056ca t CC2420ActiveMessageP__AMPacket__address
000056de t StateImplP__State__forceState
000056fa t EndMoteC__AMControl__start
00005744 t TransformAlarmC__1__Counter__get
000057c0 t VirtualizeTimerC__0__Timer__startOneShot
00005806 t CtpRoutingEngineP__0__chooseAdvertiseTime
00005856 t CtpRoutingEngineP__0__resetInterval
00005866 t DefaultLplP__initializeSend
000058e0 t DefaultLplP__startOffTimer
000058f0 t CtpForwardingEngineP__0__startRetxmitTimer
00005916 t CtpForwardingEngineP__0__SubSend__sendDone
00005a1e t AMQueueImplP__0__Send__sendDone
00005a5a t TransformAlarmC__1__set_alarm
00005b50 t EndMoteC__OutPort__clr
00005b60 t TrickleTimerImplP__0__Changed__set
00005b94 t TrickleTimerImplP__0__adjustTimer
00005c2c t DisseminationEngineImplP__TrickleTimer__reset
00005c78 t PowerCycleP__finishSplitControlRequests
00005daa t DefaultLplP__SendState__getState
00005dbe t DefaultLplP__SplitControlState__getState
00005dd2 t CC2420ControlP__RSTN__clr
00005de2 t CC2420ControlP__RSTN__set
00005df2 t CC2420CsmaP__shutdown
00005e70 t CC2420CsmaP__SplitControl__stop
00005ec4 t CC2420TinyosNetworkP__ActiveSend__send
00005f70 t CC2420ActiveMessageP__AMSend__send
00006028 t AMQueueImplP__0__tryToSend
000060aa t CC2420ActiveMessageP__AMSend__sendDone.isra.180
000060e2 t AMQueueImplP__0__Send__send
00006154 t DisseminationEngineImplP__sendObject
00006204 t CC2420ControlP__writeFsctrl
00006230 t CC2420ControlP__writeMdmctrl0
00006282 t CC2420TransmitP__loadTXFIFO
00006314 t DisseminatorP__0__DisseminationValue__changed
000063ae t VirtualizeTimerC__0__fireTimers
00006592 t CC2420CsmaP__SplitControl__start
000065f4 t HplMsp430Usart0P__Usart__setModeSpi.constprop.190
0000667a t CC2420SpiP__Resource__immediateRequest
000066f0 t CC2420ReceiveP__beginReceive
00006716 t CC2420ReceiveP__waitForNextPacket
00006764 t CC2420ReceiveP__flush
0000678c t Msp430SpiNoDmaP__0__signalDone
00006a90 t CC2420TransmitP__acquireSpiResource
00006aae t Msp430TimerP__1__Event__fired
00006dfc t SchedulerBasicP__TaskBasic__runTask
00008242 t RealMainP__Scheduler__runNextTask
00008260 T __isr_6
00008260 T sig_TIMERA0_VECTOR
0000827e T __isr_5
0000827e T sig_TIMERA1_VECTOR
000082a4 T __isr_13
000082a4 T sig_TIMERB0_VECTOR
000082c2 T __isr_12
000082c2 T sig_TIMERB1_VECTOR
000082e8 T __isr_4
000082e8 T sig_PORT1_VECTOR
000083da T __isr_1
000083da T sig_PORT2_VECTOR
000084d2 T __isr_9
000084d2 T sig_UART0RX_VECTOR
0000852e T __isr_8
0000852e T sig_UART0TX_VECTOR
00008550 t LinkEstimatorP__initNeighborIdx
00008580 t LinkEstimatorP__findWorstNeighborIdx
000085c8 t CtpRoutingEngineP__0__routingTableFind
000085ee t LinkEstimatorP__Packet__payloadLength
00008608 t LinkEstimatorP__updateNeighborEntryIdx
0000880c t LinkEstimatorP__LinkEstimator__evicted
0000887c T __umulsidi3
000088b2 T __muldi3
000088e8 T __xabi_muldi3
00008928 T __ext_udivmod16
00008928 T __udivhi3
00008942 T __umodhi3
0000894a T __divhi3
0000894a T __ext_divmod16
0000897c T __modhi3
00008984 T __ext_udivmod32
00008984 T __udivsi3
000089ba T __umodsi3
000089c4 T memcmp
000089e4 T memcpy
00008ade T memset
00008b48 W _unexpected_
00008b4a r .rodata
00008bc6 R McuSleepC__msp430PowerBits
00008bd2 r CSWTCH.534
00008bd6 A __data_load_start
00008bd6 A _etext
0000ffe0 t .vectors
0000ffe0 T __ivtbl_16
00010000 T _vectors_end
